…
    out_rows[[i - 4]] <- out_cols
    pb$tick()
  }
  
  out <- map_dfr(out_rows, ~ tibble(parameter = .x[1], value = .x[2]))
  return(out)
}
```

The output from the `extract_overview` function is a tibble with two
columns containing the basic ETF information:

    ## # A tibble: 37 x 2
    ##    parameter                 value             
    ##    <chr>                     <chr>             
    ##  1 BasiswÃ¤hrung             EUR               
    ##  2 Anlageklasse              Aktien            
    ##  3 Wertpapierleiheertrag     0,00              
    ##  4 Auflagedatum              04.Apr.2005       
    ##  5 Total Expense Ratio       0,31              
    ##  6 Vergleichsindex           DivDAXÂ®          
    ##  7 AusschÃ¼ttungshÃ¤ufigkeit Bis zu 4x pro Jahr
    ##  8 Domizil                   Deutschland       
    ##  9 Methodik                  Replikation       
    ## 10 Product Structure         Physical          
    ## # ... with 27 more rows
…
    out <- map_dfr(out_rows, ~ tibble(date = .x[1], dividend = .x[2]))
  } else {
    out <- tibble(date = NA, dividend = NA)
  }
  return(out)
}
```

The output from the `extract_dividends` function is a tibble with two
columns containing ETF dividends (date, dividend):

    ## # A tibble: 34 x 2
    ##    date         dividend
    ##    <chr>        <chr>   
    ##  1 25.MÃ¤r.2020 0       
    ##  2 27.Dez.2019  0       
    ##  3 24.Sep.2019  0       
    ##  4 24.Jun.2019  0.422498
    ##  5 25.MÃ¤r.2019 0       
    ##  6 28.Dez.2018  0       
    ##  7 26.Sep.2018  0       
    ##  8 26.Jun.2018  0.414135
    ##  9 08.JÃ¤n.2018 0       
    ## 10 02.JÃ¤n.2018 0       
    ## # ... with 24 more rows
…
Map the `download_ishares` function to the list of ETF names and URLs
`[data_etf]`:

``` r
map2(data_etf$name, data_etf$url, download_ishares)
```

The output are three files for each ETF that contain cleaned overview
data, historic prices, and dividends:

    ## # A tibble: 37 x 2
    ##    parameter               value             
    ##    <chr>                   <chr>             
    ##  1 Basiswährung            EUR               
    ##  2 Anlageklasse            Aktien            
    ##  3 Wertpapierleiheertrag   0,00              
    ##  4 Auflagedatum            04.Apr.2005       
    ##  5 Total Expense Ratio     0,31              
    ##  6 Vergleichsindex         DivDAX®           
    ##  7 Ausschüttungshäufigkeit Bis zu 4x pro Jahr
    ##  8 Domizil                 Deutschland       
    ##  9 Methodik                Replikation       
    ## 10 Product Structure       Physical          
    ## # ... with 27 more rows

    ## # A tibble: 3,853 x 3
    ##    date       currency price
    ##    <date>     <chr>    <dbl>
    ##  1 2020-06-19 EUR       16.1
    ##  2 2020-06-18 EUR       16.1
    ##  3 2020-06-17 EUR       16.1
    ##  4 2020-06-16 EUR       16.0
    ##  5 2020-06-15 EUR       15.6
    ##  6 2020-06-12 EUR       15.6
    ##  7 2020-06-11 EUR       15.6
    ##  8 2020-06-10 EUR       16.4
    ##  9 2020-06-09 EUR       16.5
    ## 10 2020-06-08 EUR       16.9
    ## # ... with 3,843 more rows
…
  out <- out %>%
    mutate(price = price + dividend) %>%
    select(-dividend)
  
  return(out)
}) %>% bind_rows() %>%
  filter(!is.na(date))
```

The code above results in a table with five columns (name, isin, date,
currency, price) containing the aggregated data for all ETFs:

    ## # A tibble: 95,208 x 5
    ##    name   isin         date       currency price
    ##    <chr>  <chr>        <date>     <chr>    <dbl>
    ##  1 DivDAX DE0002635273 2020-06-19 EUR       16.1
    ##  2 DivDAX DE0002635273 2020-06-18 EUR       16.1
    ##  3 DivDAX DE0002635273 2020-06-17 EUR       16.1
    ##  4 DivDAX DE0002635273 2020-06-16 EUR       16.0
    ##  5 DivDAX DE0002635273 2020-06-15 EUR       15.6
    ##  6 DivDAX DE0002635273 2020-06-12 EUR       15.6
    ##  7 DivDAX DE0002635273 2020-06-11 EUR       15.6
    ##  8 DivDAX DE0002635273 2020-06-10 EUR       16.4
    ##  9 DivDAX DE0002635273 2020-06-09 EUR       16.5
    ## 10 DivDAX DE0002635273 2020-06-08 EUR       16.9
    ## # ... with 95,198 more rows
…
``` r
ishares_data <- ishares_data %>%
  left_join(data_fx, by = "date") %>%
  mutate(price = case_when(currency == "USD" ~ price / usd_rate,
                           currency == "GBP" ~ price / gbp_rate,
                           TRUE ~ price)) %>%
  select(-currency, -usd_rate, -gbp_rate)
```

The result is a long-formatted dataframe of Euro-denomminated ETF prices
for various dates:

    ## # A tibble: 95,208 x 4
    ##    name   isin         date       price
    ##    <chr>  <chr>        <date>     <dbl>
    ##  1 DivDAX DE0002635273 2020-06-19  16.1
    ##  2 DivDAX DE0002635273 2020-06-18  16.1
    ##  3 DivDAX DE0002635273 2020-06-17  16.1
    ##  4 DivDAX DE0002635273 2020-06-16  16.0
    ##  5 DivDAX DE0002635273 2020-06-15  15.6
    ##  6 DivDAX DE0002635273 2020-06-12  15.6
    ##  7 DivDAX DE0002635273 2020-06-11  15.6
    ##  8 DivDAX DE0002635273 2020-06-10  16.4
    ##  9 DivDAX DE0002635273 2020-06-09  16.5
    ## 10 DivDAX DE0002635273 2020-06-08  16.9
    ## # ... with 95,198 more rows
…
      filter(i == .x) %>%
      mutate(start_px = lag(price)) %>%
      mutate(diff_px = price - start_px) %>%
      mutate(return = diff_px / start_px) %>%
      select(isin, name, date, return)
    return(out)
  }) %>%
    bind_rows() %>%
    arrange(date) %>%
    filter(!is.na(return))
  return(xreturns)
}) %>%   bind_rows()
```

    ## # A tibble: 91,505 x 4
    ##    isin         name   date         return
    ##    <chr>        <chr>  <date>        <dbl>
    ##  1 DE0002635273 DivDAX 2005-05-02 -0.0127 
    ##  2 DE0002635273 DivDAX 2005-05-03 -0.0201 
    ##  3 DE0002635273 DivDAX 2005-05-04 -0.0213 
    ##  4 DE0002635273 DivDAX 2005-05-05 -0.0158 
    ##  5 DE0002635273 DivDAX 2005-05-06 -0.0173 
    ##  6 DE0002635273 DivDAX 2005-05-09 -0.0163 
    ##  7 DE0002635273 DivDAX 2005-05-10 -0.0201 
    ##  8 DE0002635273 DivDAX 2005-05-11 -0.0179 
    ##  9 DE0002635273 DivDAX 2005-05-12 -0.0192 
    ## 10 DE0002635273 DivDAX 2005-05-13 -0.00950
    ## # ... with 91,495 more rows
…
